[gd_scene load_steps=2 format=2]

[ext_resource path="res://Levels/VictoryScreen.tscn" type="PackedScene" id=1]

[node name="LosingScreen" instance=ExtResource( 1 )]

[node name="TitleLabel" parent="CenterContainer/Background/VBoxContainer" index="0"]
margin_top = 35.0
margin_bottom = 62.0
text = "!!! Oh no !!!"

[node name="ContentLabel" parent="CenterContainer/Background/VBoxContainer" index="1"]
margin_top = 82.0
margin_bottom = 193.0
text = "Mission
Failed"

[node name="Split" parent="CenterContainer/Background/VBoxContainer" index="2"]
margin_top = 213.0
margin_bottom = 225.0

[node name="CenterContainer" parent="CenterContainer/Background/VBoxContainer" index="3"]
margin_top = 245.0
margin_bottom = 313.0

[node name="GridContainer" parent="CenterContainer/Background/VBoxContainer/CenterContainer" index="0"]
margin_bottom = 68.0

[node name="TutorialButton" parent="CenterContainer/Background/VBoxContainer/CenterContainer/GridContainer" index="0"]
visible = false

[node name="Label3" parent="CenterContainer/Background/VBoxContainer/CenterContainer/GridContainer" index="1"]
visible = false
margin_left = 0.0
margin_right = 174.0

[node name="StartButton" parent="CenterContainer/Background/VBoxContainer/CenterContainer/GridContainer" index="2"]
margin_top = 0.0
margin_bottom = 32.0

[node name="Label" parent="CenterContainer/Background/VBoxContainer/CenterContainer/GridContainer" index="3"]
margin_top = 2.0
margin_bottom = 29.0

[node name="QuitButton" parent="CenterContainer/Background/VBoxContainer/CenterContainer/GridContainer" index="4"]
margin_top = 36.0
margin_bottom = 68.0

[node name="Label2" parent="CenterContainer/Background/VBoxContainer/CenterContainer/GridContainer" index="5"]
margin_top = 38.0
margin_bottom = 65.0
