[gd_scene load_steps=11 format=2]

[ext_resource path="res://GFX/Interface/PNG/glassPanel_cornerTL.png" type="Texture" id=1]
[ext_resource path="res://Interface/Theme.tres" type="Theme" id=2]
[ext_resource path="res://GFX/Interface/PNG/dotRed.png" type="Texture" id=3]
[ext_resource path="res://GFX/Interface/PNG/dot_shadow.png" type="Texture" id=4]
[ext_resource path="res://Interface/SuspicionMeter.gd" type="Script" id=5]
[ext_resource path="res://GFX/PNG/Tiles/tile_129.png" type="Texture" id=6]
[ext_resource path="res://GFX/Interface/PNG/glassPanel_cornerBR.png" type="Texture" id=7]
[ext_resource path="res://Interface/DisguiseCounter.gd" type="Script" id=8]
[ext_resource path="res://GFX/Interface/PNG/glassPanel_cornerTR.png" type="Texture" id=9]
[ext_resource path="res://Interface/LootContainer.gd" type="Script" id=10]

[node name="GUI" type="CanvasLayer"]

[node name="Control" type="Control" parent="."]
anchor_right = 1.0
anchor_bottom = 1.0
mouse_filter = 2
theme = ExtResource( 2 )
__meta__ = {
"_edit_use_anchors_": false
}

[node name="NinePatchRect" type="NinePatchRect" parent="Control"]
anchor_left = 1.0
anchor_top = 1.0
anchor_right = 1.0
anchor_bottom = 1.0
margin_left = -260.0
margin_top = -122.0
margin_right = -24.0
margin_bottom = -22.0
texture = ExtResource( 1 )
patch_margin_left = 20
patch_margin_top = 20
patch_margin_right = 20
patch_margin_bottom = 20
__meta__ = {
"_edit_use_anchors_": false
}

[node name="CenterContainer" type="CenterContainer" parent="Control/NinePatchRect"]
anchor_right = 1.0
anchor_bottom = 1.0
margin_left = 6.0
margin_top = 6.0
margin_right = -6.0
margin_bottom = -6.0
__meta__ = {
"_edit_use_anchors_": false
}

[node name="HBoxContainer" type="HBoxContainer" parent="Control/NinePatchRect/CenterContainer"]
margin_left = 20.0
margin_top = 30.0
margin_right = 204.0
margin_bottom = 57.0

[node name="Label" type="Label" parent="Control/NinePatchRect/CenterContainer/HBoxContainer"]
margin_right = 156.0
margin_bottom = 27.0
custom_colors/font_color = Color( 1, 1, 1, 1 )
text = "Suspicion"

[node name="SuspicionMeter" type="TextureProgress" parent="Control/NinePatchRect/CenterContainer/HBoxContainer" groups=["SuspicionMeter"]]
margin_left = 160.0
margin_right = 184.0
margin_bottom = 27.0
step = 2.0
texture_under = ExtResource( 4 )
texture_progress = ExtResource( 3 )
fill_mode = 4
script = ExtResource( 5 )

[node name="DisguiseContainer" type="NinePatchRect" parent="Control"]
margin_left = 20.0
margin_top = 20.0
margin_right = 320.0
margin_bottom = 120.0
texture = ExtResource( 7 )
patch_margin_left = 15
patch_margin_top = 15
patch_margin_right = 15
patch_margin_bottom = 15
__meta__ = {
"_edit_use_anchors_": false
}

[node name="VBoxContainer" type="VBoxContainer" parent="Control/DisguiseContainer"]
anchor_right = 1.0
anchor_bottom = 1.0
margin_left = 12.0
margin_top = 12.0
margin_right = -12.0
margin_bottom = -12.0
__meta__ = {
"_edit_use_anchors_": false
}

[node name="Label" type="Label" parent="Control/DisguiseContainer/VBoxContainer"]
margin_right = 276.0
margin_bottom = 27.0
custom_colors/font_color = Color( 1, 1, 1, 1 )
text = "Disguises"

[node name="DisguiseCounter" type="ItemList" parent="Control/DisguiseContainer/VBoxContainer" groups=["DisguiseDisplay"]]
margin_top = 31.0
margin_right = 276.0
margin_bottom = 65.0
items = [ "", ExtResource( 6 ), false ]
auto_height = true
max_columns = 7
icon_scale = 0.5
script = ExtResource( 8 )

[node name="LootContainer" type="NinePatchRect" parent="Control" groups=["Loot"]]
visible = false
anchor_top = 1.0
anchor_bottom = 1.0
margin_left = 20.0
margin_top = -122.0
margin_right = 320.0
margin_bottom = -22.0
texture = ExtResource( 9 )
patch_margin_left = 15
patch_margin_top = 15
patch_margin_right = 15
patch_margin_bottom = 15
script = ExtResource( 10 )
__meta__ = {
"_edit_use_anchors_": false
}

[node name="VBoxContainer" type="VBoxContainer" parent="Control/LootContainer"]
anchor_right = 1.0
anchor_bottom = 1.0
margin_left = 10.0
margin_top = 10.0
margin_right = -10.0
margin_bottom = -10.0
__meta__ = {
"_edit_use_anchors_": false
}

[node name="Label" type="Label" parent="Control/LootContainer/VBoxContainer"]
margin_right = 280.0
margin_bottom = 27.0
custom_colors/font_color = Color( 1, 1, 1, 1 )
text = "Loot"

[node name="ItemList" type="ItemList" parent="Control/LootContainer/VBoxContainer"]
margin_top = 31.0
margin_right = 280.0
margin_bottom = 35.0
items = [ "", null, false ]
auto_height = true
icon_scale = 0.25
__meta__ = {
"_edit_use_anchors_": false
}
