[gd_scene load_steps=2 format=2]

[ext_resource path="res://Interface/VisionMode.gd" type="Script" id=1]

[node name="VisionMode" type="CanvasModulate" groups=["Interface"]]
visible = false
color = Color( 0.239216, 0.227451, 0.227451, 1 )
script = ExtResource( 1 )

[node name="NightvisonASP2D" type="AudioStreamPlayer2D" parent="."]

[node name="Timer" type="Timer" parent="."]
one_shot = true

[connection signal="timeout" from="Timer" to="." method="_on_Timer_timeout"]
