[gd_resource type="OccluderPolygon2D" format=2]

[resource]
cull_mode = 1
polygon = PoolVector2Array( -6, -21, 3, -21, 5, -19, 6, -18, 7, -16, 7, -15, 7, -11, 8, -9, 8, -7, 9, -5, 11, -3, 12, -1, 12, 1, 11, 3, 10, 5, 9, 7, 8, 8, 8, 10, 7, 13, 7, 16, 6, 19, 3, 21, -7, 21, -10, 19, -11, 16, -11, 12, -12, 8, -14, 4, -14, 0, -14, -3, -12, -7, -11, -10, -11, -15, -10, -17, -8, -20 )
