[gd_scene load_steps=5 format=2]

[ext_resource path="res://GFX/PNG/Man Red/manRed_stand.png" type="Texture" id=1]
[ext_resource path="res://Characters/TemplateCharacter.gd" type="Script" id=2]
[ext_resource path="res://Characters/HumanOccluder.tres" type="OccluderPolygon2D" id=3]

[sub_resource type="CapsuleShape2D" id=1]
height = 24.0

[node name="TemplateCharacter" type="KinematicBody2D"]
script = ExtResource( 2 )
__meta__ = {
"_edit_group_": true
}

[node name="Sprite" type="Sprite" parent="."]
texture = ExtResource( 1 )

[node name="CollisionShape2D" type="CollisionShape2D" parent="."]
visible = false
position = Vector2( -2, 0 )
shape = SubResource( 1 )

[node name="LightOccluder2D" type="LightOccluder2D" parent="."]
occluder = ExtResource( 3 )
